{
	"info": {
		"_postman_id": "219fbce6-2c1e-4469-b2c7-23e86931653e",
		"name": "NVT - Example 1",
		"schema": "https://schema.getpostman.com/json/collection/v2.0.0/collection.json",
		"_exporter_id": "30513109"
	},
	"item": [
		{
			"name": "Get last 10 messages in topic",
			"request": {
				"method": "GET",
				"header": [],
				"url": {
					"raw": "http://localhost:8081/topics?topic=topic1",
					"protocol": "http",
					"host": [
						"localhost"
					],
					"port": "8081",
					"path": [
						"topics"
					],
					"query": [
						{
							"key": "topic",
							"value": "topic1"
						}
					]
				}
			},
			"response": []
		},
		{
			"name": "Add subscription to new MQTT topic",
			"request": {
				"method": "POST",
				"header": [],
				"body": {
					"mode": "raw",
					"raw": "{\r\n    \"topic\": \"topic1\"\r\n}",
					"options": {
						"raw": {
							"language": "json"
						}
					}
				},
				"url": "http://localhost:8081/topics/mqtt"
			},
			"response": []
		},
		{
			"name": "Add subscription to new AMQP topic",
			"request": {
				"method": "POST",
				"header": [],
				"body": {
					"mode": "raw",
					"raw": "{\r\n    \"topic\": \"topic2\"\r\n}",
					"options": {
						"raw": {
							"language": "json"
						}
					}
				},
				"url": "http://localhost:8081/topics/amqp"
			},
			"response": []
		}
	]
}